#Command: "C:\Program Files (x86)\Microsoft Visual Studio\2019\Community\VC\Tools\MSVC\14.22.27905\bin\HostX86\x86\link.exe" /ERRORREPORT:PROMPT @C:\Users\Gamer\AppData\Local\Temp\tmpa83e770bb6c24fa6b5a1972f0c161a31.rsp
^G:\PROGRAMING\CPP\ARENA_ALLOCATOR\PROJECT1\RELEASE\SOURCE.OBJ
G:\PROGRAMING\CPP\ARENA_ALLOCATOR\RELEASE\PROJECT1.PDB
#Command: "C:\Program Files (x86)\Microsoft Visual Studio\2019\Community\VC\Tools\MSVC\14.22.27905\bin\HostX86\x86\link.exe" /ERRORREPORT:PROMPT @C:\Users\Gamer\AppData\Local\Temp\tmp1431659a5f2c4e1796326cecc007fb25.rsp
^G:\PROGRAMING\CPP\ARENA_ALLOCATOR\PROJECT1\RELEASE\SOURCE.OBJ
G:\PROGRAMING\CPP\ARENA_ALLOCATOR\RELEASE\PROJECT1.PDB
#Command: "C:\Program Files (x86)\Microsoft Visual Studio\2019\Community\VC\Tools\MSVC\14.22.27905\bin\HostX86\x86\link.exe" /ERRORREPORT:PROMPT @C:\Users\Gamer\AppData\Local\Temp\tmp5101e4f2b1ef4dfcbc05eb2ab3fbd6bb.rsp
^G:\PROGRAMING\CPP\ARENA_ALLOCATOR\PROJECT1\RELEASE\SOURCE.OBJ
G:\PROGRAMING\CPP\ARENA_ALLOCATOR\RELEASE\PROJECT1.PDB
#Command: "C:\Program Files (x86)\Microsoft Visual Studio\2019\Community\VC\Tools\MSVC\14.22.27905\bin\HostX86\x86\link.exe" /ERRORREPORT:PROMPT @C:\Users\Gamer\AppData\Local\Temp\tmp255b9e48a6094f5ea910d078daeb82d9.rsp
^G:\PROGRAMING\CPP\ARENA_ALLOCATOR\PROJECT1\RELEASE\SOURCE.OBJ
G:\PROGRAMING\CPP\ARENA_ALLOCATOR\RELEASE\PROJECT1.PDB
#Command: "C:\Program Files (x86)\Microsoft Visual Studio\2019\Community\VC\Tools\MSVC\14.22.27905\bin\HostX86\x86\link.exe" /ERRORREPORT:PROMPT @C:\Users\Gamer\AppData\Local\Temp\tmpeb560a3429764419971e9a5a5bc5bf34.rsp
^G:\PROGRAMING\CPP\ARENA_ALLOCATOR\PROJECT1\RELEASE\SOURCE.OBJ
G:\PROGRAMING\CPP\ARENA_ALLOCATOR\RELEASE\PROJECT1.PDB
#Command: "C:\Program Files (x86)\Microsoft Visual Studio\2019\Community\VC\Tools\MSVC\14.22.27905\bin\HostX86\x86\link.exe" /ERRORREPORT:PROMPT @C:\Users\Gamer\AppData\Local\Temp\tmp34b66e84024d4f4a8522d3f5c66bbe75.rsp
^G:\PROGRAMING\CPP\ARENA_ALLOCATOR\PROJECT1\RELEASE\SOURCE.OBJ
G:\PROGRAMING\CPP\ARENA_ALLOCATOR\RELEASE\PROJECT1.PDB
#Command: "C:\Program Files (x86)\Microsoft Visual Studio\2019\Community\VC\Tools\MSVC\14.22.27905\bin\HostX86\x86\link.exe" /ERRORREPORT:PROMPT @C:\Users\Gamer\AppData\Local\Temp\tmp8fe79029e4a5482e9177af19c62b4396.rsp
^G:\PROGRAMING\CPP\ARENA_ALLOCATOR\PROJECT1\RELEASE\SOURCE.OBJ
G:\PROGRAMING\CPP\ARENA_ALLOCATOR\RELEASE\PROJECT1.PDB
#Command: "C:\Program Files (x86)\Microsoft Visual Studio\2019\Community\VC\Tools\MSVC\14.22.27905\bin\HostX86\x86\link.exe" /ERRORREPORT:PROMPT @C:\Users\Gamer\AppData\Local\Temp\tmpd0162b7d9370461590e8cdbf904f53bf.rsp
^G:\PROGRAMING\CPP\ARENA_ALLOCATOR\PROJECT1\RELEASE\SOURCE.OBJ
G:\PROGRAMING\CPP\ARENA_ALLOCATOR\RELEASE\PROJECT1.PDB
#Command: "C:\Program Files (x86)\Microsoft Visual Studio\2019\Community\VC\Tools\MSVC\14.22.27905\bin\HostX86\x86\link.exe" /ERRORREPORT:PROMPT @C:\Users\Gamer\AppData\Local\Temp\tmp412c215fefb2420f89b1f6a7d535a270.rsp
^G:\PROGRAMING\CPP\ARENA_ALLOCATOR\PROJECT1\RELEASE\SOURCE.OBJ
G:\PROGRAMING\CPP\ARENA_ALLOCATOR\RELEASE\PROJECT1.PDB
#Command: "C:\Program Files (x86)\Microsoft Visual Studio\2019\Community\VC\Tools\MSVC\14.22.27905\bin\HostX86\x86\link.exe" /ERRORREPORT:PROMPT @C:\Users\Gamer\AppData\Local\Temp\tmp338acf2d006f4d5f9deb8686a61387de.rsp
^G:\PROGRAMING\CPP\ARENA_ALLOCATOR\PROJECT1\RELEASE\SOURCE.OBJ
G:\PROGRAMING\CPP\ARENA_ALLOCATOR\RELEASE\PROJECT1.PDB
#Command: "C:\Program Files (x86)\Microsoft Visual Studio\2019\Community\VC\Tools\MSVC\14.22.27905\bin\HostX86\x86\link.exe" /ERRORREPORT:PROMPT @C:\Users\Gamer\AppData\Local\Temp\tmp802cfa4c596646b19d61ff84fcd71afd.rsp
^G:\PROGRAMING\CPP\ARENA_ALLOCATOR\PROJECT1\RELEASE\SOURCE.OBJ
G:\PROGRAMING\CPP\ARENA_ALLOCATOR\RELEASE\PROJECT1.PDB
#Command: "C:\Program Files (x86)\Microsoft Visual Studio\2019\Community\VC\Tools\MSVC\14.22.27905\bin\HostX86\x86\link.exe" /ERRORREPORT:PROMPT @C:\Users\Gamer\AppData\Local\Temp\tmpf7d2dc1ab2284d9d974d6e17fb716016.rsp
^G:\PROGRAMING\CPP\ARENA_ALLOCATOR\PROJECT1\RELEASE\SOURCE.OBJ
G:\PROGRAMING\CPP\ARENA_ALLOCATOR\RELEASE\PROJECT1.PDB
#Command: "C:\Program Files (x86)\Microsoft Visual Studio\2019\Community\VC\Tools\MSVC\14.22.27905\bin\HostX86\x86\link.exe" /ERRORREPORT:PROMPT @C:\Users\Gamer\AppData\Local\Temp\tmp3fe2b32cab3446aa8523d34df6a21732.rsp
^G:\PROGRAMING\CPP\ARENA_ALLOCATOR\PROJECT1\RELEASE\SOURCE.OBJ
G:\PROGRAMING\CPP\ARENA_ALLOCATOR\RELEASE\PROJECT1.PDB
#Command: "C:\Program Files (x86)\Microsoft Visual Studio\2019\Community\VC\Tools\MSVC\14.22.27905\bin\HostX86\x86\link.exe" /ERRORREPORT:PROMPT @C:\Users\Gamer\AppData\Local\Temp\tmp010b64f0f4034de6ac451d008ee31f47.rsp
^G:\PROGRAMING\CPP\ARENA_ALLOCATOR\PROJECT1\RELEASE\SOURCE.OBJ
G:\PROGRAMING\CPP\ARENA_ALLOCATOR\RELEASE\PROJECT1.PDB
#Command: "C:\Program Files (x86)\Microsoft Visual Studio\2019\Community\VC\Tools\MSVC\14.22.27905\bin\HostX86\x86\link.exe" /ERRORREPORT:PROMPT @C:\Users\Gamer\AppData\Local\Temp\tmp5e696aa8eee2460486360cd24777cd16.rsp
^G:\PROGRAMING\CPP\ARENA_ALLOCATOR\PROJECT1\RELEASE\SOURCE.OBJ
G:\PROGRAMING\CPP\ARENA_ALLOCATOR\RELEASE\PROJECT1.PDB
#Command: "C:\Program Files (x86)\Microsoft Visual Studio\2019\Community\VC\Tools\MSVC\14.22.27905\bin\HostX86\x86\link.exe" /ERRORREPORT:PROMPT @C:\Users\Gamer\AppData\Local\Temp\tmp1632293bad0247a9b765183604523bf1.rsp
^G:\PROGRAMING\CPP\ARENA_ALLOCATOR\PROJECT1\RELEASE\SOURCE.OBJ
G:\PROGRAMING\CPP\ARENA_ALLOCATOR\RELEASE\PROJECT1.PDB
#Command: "C:\Program Files (x86)\Microsoft Visual Studio\2019\Community\VC\Tools\MSVC\14.22.27905\bin\HostX86\x86\link.exe" /ERRORREPORT:PROMPT @C:\Users\Gamer\AppData\Local\Temp\tmp27c800c0859b4317973ddce9536afaf4.rsp
^G:\PROGRAMING\CPP\ARENA_ALLOCATOR\PROJECT1\RELEASE\SOURCE.OBJ
G:\PROGRAMING\CPP\ARENA_ALLOCATOR\RELEASE\PROJECT1.PDB
#Command: "C:\Program Files (x86)\Microsoft Visual Studio\2019\Community\VC\Tools\MSVC\14.22.27905\bin\HostX86\x86\link.exe" /ERRORREPORT:PROMPT @C:\Users\Gamer\AppData\Local\Temp\tmpcf5da0cb482c493b8d56180c33fe47e4.rsp
^G:\PROGRAMING\CPP\ARENA_ALLOCATOR\PROJECT1\RELEASE\SOURCE.OBJ
G:\PROGRAMING\CPP\ARENA_ALLOCATOR\RELEASE\PROJECT1.PDB
#Command: "C:\Program Files (x86)\Microsoft Visual Studio\2019\Community\VC\Tools\MSVC\14.22.27905\bin\HostX86\x86\link.exe" /ERRORREPORT:PROMPT @C:\Users\Gamer\AppData\Local\Temp\tmpb73652e748b84ebcba0e6f97cf9ee881.rsp
^G:\PROGRAMING\CPP\ARENA_ALLOCATOR\PROJECT1\RELEASE\SOURCE.OBJ
G:\PROGRAMING\CPP\ARENA_ALLOCATOR\RELEASE\PROJECT1.PDB
#Command: "C:\Program Files (x86)\Microsoft Visual Studio\2019\Community\VC\Tools\MSVC\14.22.27905\bin\HostX86\x86\link.exe" /ERRORREPORT:PROMPT @C:\Users\Gamer\AppData\Local\Temp\tmpdd234b3505b3446586e086824284701f.rsp
^G:\PROGRAMING\CPP\ARENA_ALLOCATOR\PROJECT1\RELEASE\SOURCE.OBJ
G:\PROGRAMING\CPP\ARENA_ALLOCATOR\RELEASE\PROJECT1.PDB
#Command: "C:\Program Files (x86)\Microsoft Visual Studio\2019\Community\VC\Tools\MSVC\14.22.27905\bin\HostX86\x86\link.exe" /ERRORREPORT:PROMPT @C:\Users\Gamer\AppData\Local\Temp\tmpb4fd527749844d9ba5bbadc04f425d91.rsp
^G:\PROGRAMING\CPP\ARENA_ALLOCATOR\PROJECT1\RELEASE\SOURCE.OBJ
G:\PROGRAMING\CPP\ARENA_ALLOCATOR\RELEASE\PROJECT1.PDB
#Command: "C:\Program Files (x86)\Microsoft Visual Studio\2019\Community\VC\Tools\MSVC\14.22.27905\bin\HostX86\x86\link.exe" /ERRORREPORT:PROMPT @C:\Users\Gamer\AppData\Local\Temp\tmp26f673ac91844fbea55de65a2f63431a.rsp
^G:\PROGRAMING\CPP\ARENA_ALLOCATOR\PROJECT1\RELEASE\SOURCE.OBJ
G:\PROGRAMING\CPP\ARENA_ALLOCATOR\RELEASE\PROJECT1.PDB
#Command: "C:\Program Files (x86)\Microsoft Visual Studio\2019\Community\VC\Tools\MSVC\14.22.27905\bin\HostX86\x86\link.exe" /ERRORREPORT:PROMPT @C:\Users\Gamer\AppData\Local\Temp\tmpef95b8a1803b4f968e1a136d01de2688.rsp
^G:\PROGRAMING\CPP\ARENA_ALLOCATOR\PROJECT1\RELEASE\SOURCE.OBJ
G:\PROGRAMING\CPP\ARENA_ALLOCATOR\RELEASE\PROJECT1.PDB
#Command: "C:\Program Files (x86)\Microsoft Visual Studio\2019\Community\VC\Tools\MSVC\14.22.27905\bin\HostX86\x86\link.exe" /ERRORREPORT:PROMPT @C:\Users\Gamer\AppData\Local\Temp\tmpf3bfaa1fe51a4ddc8c75cf2f5c0dfe46.rsp
^G:\PROGRAMING\CPP\ARENA_ALLOCATOR\PROJECT1\RELEASE\SOURCE.OBJ
G:\PROGRAMING\CPP\ARENA_ALLOCATOR\RELEASE\PROJECT1.PDB
#Command: "C:\Program Files (x86)\Microsoft Visual Studio\2019\Community\VC\Tools\MSVC\14.22.27905\bin\HostX86\x86\link.exe" /ERRORREPORT:PROMPT @C:\Users\Gamer\AppData\Local\Temp\tmp3f8316e85be045dba488e1328b08f8fb.rsp
^G:\PROGRAMING\CPP\ARENA_ALLOCATOR\PROJECT1\RELEASE\SOURCE.OBJ
G:\PROGRAMING\CPP\ARENA_ALLOCATOR\RELEASE\PROJECT1.PDB
#Command: "C:\Program Files (x86)\Microsoft Visual Studio\2019\Community\VC\Tools\MSVC\14.22.27905\bin\HostX86\x86\link.exe" /ERRORREPORT:PROMPT @C:\Users\Gamer\AppData\Local\Temp\tmp443b1828e7b8426c86b1f3c365b63bbe.rsp
^G:\PROGRAMING\CPP\ARENA_ALLOCATOR\PROJECT1\RELEASE\SOURCE.OBJ
G:\PROGRAMING\CPP\ARENA_ALLOCATOR\RELEASE\PROJECT1.PDB
#Command: "C:\Program Files (x86)\Microsoft Visual Studio\2019\Community\VC\Tools\MSVC\14.22.27905\bin\HostX86\x86\link.exe" /ERRORREPORT:PROMPT @C:\Users\Gamer\AppData\Local\Temp\tmp304d50e16ed4453b8c7c050c473ecc6d.rsp
^G:\PROGRAMING\CPP\ARENA_ALLOCATOR\PROJECT1\RELEASE\SOURCE.OBJ
G:\PROGRAMING\CPP\ARENA_ALLOCATOR\RELEASE\PROJECT1.PDB
#Command: "C:\Program Files (x86)\Microsoft Visual Studio\2019\Community\VC\Tools\MSVC\14.22.27905\bin\HostX86\x86\link.exe" /ERRORREPORT:PROMPT @C:\Users\Gamer\AppData\Local\Temp\tmp1366207b873948bcb43eeb1781a94d64.rsp
^G:\PROGRAMING\CPP\ARENA_ALLOCATOR\PROJECT1\RELEASE\SOURCE.OBJ
G:\PROGRAMING\CPP\ARENA_ALLOCATOR\RELEASE\PROJECT1.PDB
#Command: "C:\Program Files (x86)\Microsoft Visual Studio\2019\Community\VC\Tools\MSVC\14.22.27905\bin\HostX86\x86\link.exe" /ERRORREPORT:PROMPT @C:\Users\Gamer\AppData\Local\Temp\tmped732f68a9124175a367fc118b3b2ca1.rsp
^G:\PROGRAMING\CPP\ARENA_ALLOCATOR\PROJECT1\RELEASE\SOURCE.OBJ
G:\PROGRAMING\CPP\ARENA_ALLOCATOR\RELEASE\PROJECT1.PDB
#Command: "C:\Program Files (x86)\Microsoft Visual Studio\2019\Community\VC\Tools\MSVC\14.22.27905\bin\HostX86\x86\link.exe" /ERRORREPORT:PROMPT @C:\Users\Gamer\AppData\Local\Temp\tmpd56cfa2eabc344c7af573c9eadd593d1.rsp
^G:\PROGRAMING\CPP\ARENA_ALLOCATOR\PROJECT1\RELEASE\SOURCE.OBJ
G:\PROGRAMING\CPP\ARENA_ALLOCATOR\RELEASE\PROJECT1.PDB
#Command: "C:\Program Files (x86)\Microsoft Visual Studio\2019\Community\VC\Tools\MSVC\14.22.27905\bin\HostX86\x86\link.exe" /ERRORREPORT:PROMPT @C:\Users\Gamer\AppData\Local\Temp\tmp828fde0b7c984236aada6c43190f4264.rsp
^G:\PROGRAMING\CPP\ARENA_ALLOCATOR\PROJECT1\RELEASE\SOURCE.OBJ
G:\PROGRAMING\CPP\ARENA_ALLOCATOR\RELEASE\PROJECT1.PDB
#Command: "C:\Program Files (x86)\Microsoft Visual Studio\2019\Community\VC\Tools\MSVC\14.22.27905\bin\HostX86\x86\link.exe" /ERRORREPORT:PROMPT @C:\Users\Gamer\AppData\Local\Temp\tmpe6862f2bc2a241dea390fcf0ba8a373e.rsp
^G:\PROGRAMING\CPP\ARENA_ALLOCATOR\PROJECT1\RELEASE\SOURCE.OBJ
G:\PROGRAMING\CPP\ARENA_ALLOCATOR\RELEASE\PROJECT1.PDB
#Command: "C:\Program Files (x86)\Microsoft Visual Studio\2019\Community\VC\Tools\MSVC\14.22.27905\bin\HostX86\x86\link.exe" /ERRORREPORT:PROMPT @C:\Users\Gamer\AppData\Local\Temp\tmp19d557abd0304b819e5d5c08b61414dc.rsp
^G:\PROGRAMING\CPP\ARENA_ALLOCATOR\PROJECT1\RELEASE\SOURCE.OBJ
G:\PROGRAMING\CPP\ARENA_ALLOCATOR\RELEASE\PROJECT1.PDB
#Command: "C:\Program Files (x86)\Microsoft Visual Studio\2019\Community\VC\Tools\MSVC\14.22.27905\bin\HostX86\x86\link.exe" /ERRORREPORT:PROMPT @C:\Users\Gamer\AppData\Local\Temp\tmpfa24ab18b9684afdb2ba6c70f72d33bb.rsp
^G:\PROGRAMING\CPP\ARENA_ALLOCATOR\PROJECT1\RELEASE\SOURCE.OBJ
G:\PROGRAMING\CPP\ARENA_ALLOCATOR\RELEASE\PROJECT1.PDB
#Command: "C:\Program Files (x86)\Microsoft Visual Studio\2019\Community\VC\Tools\MSVC\14.22.27905\bin\HostX86\x86\link.exe" /ERRORREPORT:PROMPT @C:\Users\Gamer\AppData\Local\Temp\tmpd9374ae3264b4ffd8c4ecffb844a6b36.rsp
^G:\PROGRAMING\CPP\ARENA_ALLOCATOR\PROJECT1\RELEASE\SOURCE.OBJ
G:\PROGRAMING\CPP\ARENA_ALLOCATOR\RELEASE\PROJECT1.PDB
#Command: "C:\Program Files (x86)\Microsoft Visual Studio\2019\Community\VC\Tools\MSVC\14.22.27905\bin\HostX86\x86\link.exe" /ERRORREPORT:PROMPT @C:\Users\Gamer\AppData\Local\Temp\tmp8a0ba3c994b54d3e8b3077d9bca28e63.rsp
^G:\PROGRAMING\CPP\ARENA_ALLOCATOR\PROJECT1\RELEASE\SOURCE.OBJ
G:\PROGRAMING\CPP\ARENA_ALLOCATOR\RELEASE\PROJECT1.PDB
#Command: "C:\Program Files (x86)\Microsoft Visual Studio\2019\Community\VC\Tools\MSVC\14.22.27905\bin\HostX86\x86\link.exe" /ERRORREPORT:PROMPT @C:\Users\Gamer\AppData\Local\Temp\tmp40febec737d34d23b8072e2bb0c419b4.rsp
^G:\PROGRAMING\CPP\ARENA_ALLOCATOR\PROJECT1\RELEASE\SOURCE.OBJ
G:\PROGRAMING\CPP\ARENA_ALLOCATOR\RELEASE\PROJECT1.PDB
#Command: "C:\Program Files (x86)\Microsoft Visual Studio\2019\Community\VC\Tools\MSVC\14.22.27905\bin\HostX86\x86\link.exe" /ERRORREPORT:PROMPT @C:\Users\Gamer\AppData\Local\Temp\tmpdacfd1035a084b4a96c7ec8ea962ae38.rsp
^G:\PROGRAMING\CPP\ARENA_ALLOCATOR\PROJECT1\RELEASE\SOURCE.OBJ
G:\PROGRAMING\CPP\ARENA_ALLOCATOR\RELEASE\PROJECT1.PDB
#Command: "C:\Program Files (x86)\Microsoft Visual Studio\2019\Community\VC\Tools\MSVC\14.22.27905\bin\HostX86\x86\link.exe" /ERRORREPORT:PROMPT @C:\Users\Gamer\AppData\Local\Temp\tmp190076d9fa4149a7b14dbb98aae70eaf.rsp
^G:\PROGRAMING\CPP\ARENA_ALLOCATOR\PROJECT1\RELEASE\SOURCE.OBJ
G:\PROGRAMING\CPP\ARENA_ALLOCATOR\RELEASE\PROJECT1.PDB
#Command: "C:\Program Files (x86)\Microsoft Visual Studio\2019\Community\VC\Tools\MSVC\14.22.27905\bin\HostX86\x86\link.exe" /ERRORREPORT:PROMPT @C:\Users\Gamer\AppData\Local\Temp\tmpe9c0ce8ebd8444fca1a6fa9fac893537.rsp
^G:\PROGRAMING\CPP\ARENA_ALLOCATOR\PROJECT1\RELEASE\SOURCE.OBJ
G:\PROGRAMING\CPP\ARENA_ALLOCATOR\RELEASE\PROJECT1.PDB
#Command: "C:\Program Files (x86)\Microsoft Visual Studio\2019\Community\VC\Tools\MSVC\14.22.27905\bin\HostX86\x86\link.exe" /ERRORREPORT:PROMPT @C:\Users\Gamer\AppData\Local\Temp\tmpe79ea6b324944d8f9d607d39907d2ad7.rsp
^G:\PROGRAMING\CPP\ARENA_ALLOCATOR\PROJECT1\RELEASE\SOURCE.OBJ
G:\PROGRAMING\CPP\ARENA_ALLOCATOR\RELEASE\PROJECT1.PDB
#Command: "C:\Program Files (x86)\Microsoft Visual Studio\2019\Community\VC\Tools\MSVC\14.22.27905\bin\HostX86\x86\link.exe" /ERRORREPORT:PROMPT @C:\Users\Gamer\AppData\Local\Temp\tmpcdc6006e510247a7a0e2b4ef6927fade.rsp
^G:\PROGRAMING\CPP\ARENA_ALLOCATOR\PROJECT1\RELEASE\SOURCE.OBJ
G:\PROGRAMING\CPP\ARENA_ALLOCATOR\RELEASE\PROJECT1.PDB
#Command: "C:\Program Files (x86)\Microsoft Visual Studio\2019\Community\VC\Tools\MSVC\14.22.27905\bin\HostX86\x86\link.exe" /ERRORREPORT:PROMPT @C:\Users\Gamer\AppData\Local\Temp\tmpfe7b9dab19d94ba8842653bc7fd60dba.rsp
^G:\PROGRAMING\CPP\ARENA_ALLOCATOR\PROJECT1\RELEASE\SOURCE.OBJ
G:\PROGRAMING\CPP\ARENA_ALLOCATOR\RELEASE\PROJECT1.PDB
#Command: "C:\Program Files (x86)\Microsoft Visual Studio\2019\Community\VC\Tools\MSVC\14.22.27905\bin\HostX86\x86\link.exe" /ERRORREPORT:PROMPT @C:\Users\Gamer\AppData\Local\Temp\tmpf2e4206cfb9c425bad1ff7a938fd4e4a.rsp
^G:\PROGRAMING\CPP\ARENA_ALLOCATOR\PROJECT1\RELEASE\SOURCE.OBJ
G:\PROGRAMING\CPP\ARENA_ALLOCATOR\RELEASE\PROJECT1.PDB
#Command: "C:\Program Files (x86)\Microsoft Visual Studio\2019\Community\VC\Tools\MSVC\14.22.27905\bin\HostX86\x86\link.exe" /ERRORREPORT:PROMPT @C:\Users\Gamer\AppData\Local\Temp\tmp0ccdf6efbad04925b22b5bfb0b833c4d.rsp
^G:\PROGRAMING\CPP\ARENA_ALLOCATOR\PROJECT1\RELEASE\SOURCE.OBJ
G:\PROGRAMING\CPP\ARENA_ALLOCATOR\RELEASE\PROJECT1.PDB
#Command: "C:\Program Files (x86)\Microsoft Visual Studio\2019\Community\VC\Tools\MSVC\14.22.27905\bin\HostX86\x86\link.exe" /ERRORREPORT:PROMPT @C:\Users\Gamer\AppData\Local\Temp\tmp63161885be4142a7b20f778d64bb4a98.rsp
^G:\PROGRAMING\CPP\ARENA_ALLOCATOR\PROJECT1\RELEASE\SOURCE.OBJ
G:\PROGRAMING\CPP\ARENA_ALLOCATOR\RELEASE\PROJECT1.PDB
#Command: "C:\Program Files (x86)\Microsoft Visual Studio\2019\Community\VC\Tools\MSVC\14.22.27905\bin\HostX86\x86\link.exe" /ERRORREPORT:PROMPT @C:\Users\Gamer\AppData\Local\Temp\tmpb589f89fe9cc4f43ba6dfdc9757278ec.rsp
^G:\PROGRAMING\CPP\ARENA_ALLOCATOR\PROJECT1\RELEASE\SOURCE.OBJ
G:\PROGRAMING\CPP\ARENA_ALLOCATOR\RELEASE\PROJECT1.PDB
#Command: "C:\Program Files (x86)\Microsoft Visual Studio\2019\Community\VC\Tools\MSVC\14.22.27905\bin\HostX86\x86\link.exe" /ERRORREPORT:PROMPT @C:\Users\Gamer\AppData\Local\Temp\tmp070120d03f0d4af1aa163657b6397d78.rsp
^G:\PROGRAMING\CPP\ARENA_ALLOCATOR\PROJECT1\RELEASE\SOURCE.OBJ
G:\PROGRAMING\CPP\ARENA_ALLOCATOR\RELEASE\PROJECT1.PDB
#Command: "C:\Program Files (x86)\Microsoft Visual Studio\2019\Community\VC\Tools\MSVC\14.22.27905\bin\HostX86\x86\link.exe" /ERRORREPORT:PROMPT @C:\Users\Gamer\AppData\Local\Temp\tmp4ad5945a0d054b189b2b68d2306f939a.rsp
^G:\PROGRAMING\CPP\ARENA_ALLOCATOR\PROJECT1\RELEASE\SOURCE.OBJ
G:\PROGRAMING\CPP\ARENA_ALLOCATOR\RELEASE\PROJECT1.PDB
#Command: "C:\Program Files (x86)\Microsoft Visual Studio\2019\Community\VC\Tools\MSVC\14.22.27905\bin\HostX86\x86\link.exe" /ERRORREPORT:PROMPT @C:\Users\Gamer\AppData\Local\Temp\tmpf8c5956053fa4d56a2d518225ca738ba.rsp
^G:\PROGRAMING\CPP\ARENA_ALLOCATOR\PROJECT1\RELEASE\SOURCE.OBJ
G:\PROGRAMING\CPP\ARENA_ALLOCATOR\RELEASE\PROJECT1.PDB
#Command: "C:\Program Files (x86)\Microsoft Visual Studio\2019\Community\VC\Tools\MSVC\14.22.27905\bin\HostX86\x86\link.exe" /ERRORREPORT:PROMPT @C:\Users\Gamer\AppData\Local\Temp\tmp36d6543eb62946d7b90dcf50a9a5ab48.rsp
^G:\PROGRAMING\CPP\ARENA_ALLOCATOR\PROJECT1\RELEASE\SOURCE.OBJ
G:\PROGRAMING\CPP\ARENA_ALLOCATOR\RELEASE\PROJECT1.PDB
#Command: "C:\Program Files (x86)\Microsoft Visual Studio\2019\Community\VC\Tools\MSVC\14.22.27905\bin\HostX86\x86\link.exe" /ERRORREPORT:PROMPT @C:\Users\Gamer\AppData\Local\Temp\tmp16b587e553414e64904eb75bb622ba22.rsp
^G:\PROGRAMING\CPP\ARENA_ALLOCATOR\PROJECT1\RELEASE\SOURCE.OBJ
G:\PROGRAMING\CPP\ARENA_ALLOCATOR\RELEASE\PROJECT1.PDB
#Command: "C:\Program Files (x86)\Microsoft Visual Studio\2019\Community\VC\Tools\MSVC\14.22.27905\bin\HostX86\x86\link.exe" /ERRORREPORT:PROMPT @C:\Users\Gamer\AppData\Local\Temp\tmp8fad515613bb480e9f973e603445365b.rsp
^G:\PROGRAMING\CPP\ARENA_ALLOCATOR\PROJECT1\RELEASE\SOURCE.OBJ
G:\PROGRAMING\CPP\ARENA_ALLOCATOR\RELEASE\PROJECT1.PDB
#Command: "C:\Program Files (x86)\Microsoft Visual Studio\2019\Community\VC\Tools\MSVC\14.22.27905\bin\HostX86\x86\link.exe" /ERRORREPORT:PROMPT @C:\Users\Gamer\AppData\Local\Temp\tmp6a71ff71af8f496e81b97e3dfd8520e1.rsp
^G:\PROGRAMING\CPP\ARENA_ALLOCATOR\PROJECT1\RELEASE\SOURCE.OBJ
G:\PROGRAMING\CPP\ARENA_ALLOCATOR\RELEASE\PROJECT1.PDB
#Command: "C:\Program Files (x86)\Microsoft Visual Studio\2019\Community\VC\Tools\MSVC\14.22.27905\bin\HostX86\x86\link.exe" /ERRORREPORT:PROMPT @C:\Users\Gamer\AppData\Local\Temp\tmp08c6b849c8ff4b66b687105bee6b2a86.rsp
^G:\PROGRAMING\CPP\ARENA_ALLOCATOR\PROJECT1\RELEASE\SOURCE.OBJ
G:\PROGRAMING\CPP\ARENA_ALLOCATOR\RELEASE\PROJECT1.PDB
#Command: "C:\Program Files (x86)\Microsoft Visual Studio\2019\Community\VC\Tools\MSVC\14.22.27905\bin\HostX86\x86\link.exe" /ERRORREPORT:PROMPT @C:\Users\Gamer\AppData\Local\Temp\tmpb6e415dbd9a24708b750c79924705145.rsp
^G:\PROGRAMING\CPP\ARENA_ALLOCATOR\PROJECT1\RELEASE\SOURCE.OBJ
G:\PROGRAMING\CPP\ARENA_ALLOCATOR\RELEASE\PROJECT1.PDB
#Command: "C:\Program Files (x86)\Microsoft Visual Studio\2019\Community\VC\Tools\MSVC\14.22.27905\bin\HostX86\x86\link.exe" /ERRORREPORT:PROMPT @C:\Users\Gamer\AppData\Local\Temp\tmp5fdd4304b02044a683f3cbdaeefd3767.rsp
^G:\PROGRAMING\CPP\ARENA_ALLOCATOR\PROJECT1\RELEASE\SIMPLEALLOCATOR.OBJ|G:\PROGRAMING\CPP\ARENA_ALLOCATOR\PROJECT1\RELEASE\SOURCE.OBJ
G:\PROGRAMING\CPP\ARENA_ALLOCATOR\RELEASE\PROJECT1.PDB
#Command: "C:\Program Files (x86)\Microsoft Visual Studio\2019\Community\VC\Tools\MSVC\14.22.27905\bin\HostX86\x86\link.exe" /ERRORREPORT:PROMPT @C:\Users\Gamer\AppData\Local\Temp\tmpe1f34398944a42429c6b60bf0df33a77.rsp
^G:\PROGRAMING\CPP\ARENA_ALLOCATOR\PROJECT1\RELEASE\SIMPLEALLOCATOR.OBJ|G:\PROGRAMING\CPP\ARENA_ALLOCATOR\PROJECT1\RELEASE\SOURCE.OBJ
G:\PROGRAMING\CPP\ARENA_ALLOCATOR\RELEASE\PROJECT1.PDB
#Command: "C:\Program Files (x86)\Microsoft Visual Studio\2019\Community\VC\Tools\MSVC\14.22.27905\bin\HostX86\x86\link.exe" /ERRORREPORT:PROMPT @C:\Users\Gamer\AppData\Local\Temp\tmpbb28b8b245e14237b2b44691a4e78fd5.rsp
^G:\PROGRAMING\CPP\ARENA_ALLOCATOR\PROJECT1\RELEASE\SIMPLEALLOCATOR.OBJ|G:\PROGRAMING\CPP\ARENA_ALLOCATOR\PROJECT1\RELEASE\SOURCE.OBJ
G:\PROGRAMING\CPP\ARENA_ALLOCATOR\RELEASE\PROJECT1.PDB
#Command: "C:\Program Files (x86)\Microsoft Visual Studio\2019\Community\VC\Tools\MSVC\14.22.27905\bin\HostX86\x86\link.exe" /ERRORREPORT:PROMPT @C:\Users\Gamer\AppData\Local\Temp\tmp46e8adced8634459a16a073a6694f746.rsp
^G:\PROGRAMING\CPP\ARENA_ALLOCATOR\PROJECT1\RELEASE\SIMPLEALLOCATOR.OBJ|G:\PROGRAMING\CPP\ARENA_ALLOCATOR\PROJECT1\RELEASE\SOURCE.OBJ
G:\PROGRAMING\CPP\ARENA_ALLOCATOR\RELEASE\PROJECT1.PDB
#Command: "C:\Program Files (x86)\Microsoft Visual Studio\2019\Community\VC\Tools\MSVC\14.22.27905\bin\HostX86\x86\link.exe" /ERRORREPORT:PROMPT @C:\Users\Gamer\AppData\Local\Temp\tmp37334dc25a104e43a775fd194500f8ef.rsp
^G:\PROGRAMING\CPP\ARENA_ALLOCATOR\PROJECT1\RELEASE\SIMPLEALLOCATOR.OBJ|G:\PROGRAMING\CPP\ARENA_ALLOCATOR\PROJECT1\RELEASE\SOURCE.OBJ
G:\PROGRAMING\CPP\ARENA_ALLOCATOR\RELEASE\PROJECT1.PDB
#Command: "C:\Program Files (x86)\Microsoft Visual Studio\2019\Community\VC\Tools\MSVC\14.22.27905\bin\HostX86\x86\link.exe" /ERRORREPORT:PROMPT @C:\Users\Gamer\AppData\Local\Temp\tmp711fcecda343478a81a480d8a7ff9464.rsp
^G:\PROGRAMING\CPP\ARENA_ALLOCATOR\PROJECT1\RELEASE\SIMPLEALLOCATOR.OBJ|G:\PROGRAMING\CPP\ARENA_ALLOCATOR\PROJECT1\RELEASE\SOURCE.OBJ
G:\PROGRAMING\CPP\ARENA_ALLOCATOR\RELEASE\PROJECT1.PDB
#Command: "C:\Program Files (x86)\Microsoft Visual Studio\2019\Community\VC\Tools\MSVC\14.22.27905\bin\HostX86\x86\link.exe" /ERRORREPORT:PROMPT @C:\Users\Gamer\AppData\Local\Temp\tmpe9ecfea6e55f4daea367c77898baeee1.rsp
^G:\PROGRAMING\CPP\ARENA_ALLOCATOR\PROJECT1\RELEASE\SIMPLEALLOCATOR.OBJ|G:\PROGRAMING\CPP\ARENA_ALLOCATOR\PROJECT1\RELEASE\SOURCE.OBJ
G:\PROGRAMING\CPP\ARENA_ALLOCATOR\RELEASE\PROJECT1.PDB
#Command: "C:\Program Files (x86)\Microsoft Visual Studio\2019\Community\VC\Tools\MSVC\14.22.27905\bin\HostX86\x86\link.exe" /ERRORREPORT:PROMPT @C:\Users\Gamer\AppData\Local\Temp\tmp748ebfda18f640c1bf7b13e7812c8af6.rsp
^G:\PROGRAMING\CPP\ARENA_ALLOCATOR\PROJECT1\RELEASE\SIMPLEALLOCATOR.OBJ|G:\PROGRAMING\CPP\ARENA_ALLOCATOR\PROJECT1\RELEASE\SOURCE.OBJ
G:\PROGRAMING\CPP\ARENA_ALLOCATOR\RELEASE\PROJECT1.PDB
#Command: "C:\Program Files (x86)\Microsoft Visual Studio\2019\Community\VC\Tools\MSVC\14.22.27905\bin\HostX86\x86\link.exe" /ERRORREPORT:PROMPT @C:\Users\Gamer\AppData\Local\Temp\tmp4ae2d2320d0c43e9b4df0937bf4392cd.rsp
^G:\PROGRAMING\CPP\ARENA_ALLOCATOR\PROJECT1\RELEASE\SIMPLEALLOCATOR.OBJ|G:\PROGRAMING\CPP\ARENA_ALLOCATOR\PROJECT1\RELEASE\SOURCE.OBJ
G:\PROGRAMING\CPP\ARENA_ALLOCATOR\RELEASE\PROJECT1.PDB
#Command: "C:\Program Files (x86)\Microsoft Visual Studio\2019\Community\VC\Tools\MSVC\14.22.27905\bin\HostX86\x86\link.exe" /ERRORREPORT:PROMPT @C:\Users\Gamer\AppData\Local\Temp\tmp5af65d9711eb4f32b5bcdec39649cbce.rsp
^G:\PROGRAMING\CPP\ARENA_ALLOCATOR\PROJECT1\RELEASE\SIMPLEALLOCATOR.OBJ|G:\PROGRAMING\CPP\ARENA_ALLOCATOR\PROJECT1\RELEASE\SOURCE.OBJ
G:\PROGRAMING\CPP\ARENA_ALLOCATOR\RELEASE\PROJECT1.PDB
#Command: "C:\Program Files (x86)\Microsoft Visual Studio\2019\Community\VC\Tools\MSVC\14.22.27905\bin\HostX86\x86\link.exe" /ERRORREPORT:PROMPT @C:\Users\Gamer\AppData\Local\Temp\tmp4b93353e5f984a2ab1cc8faca90ba8d5.rsp
^G:\PROGRAMING\CPP\ARENA_ALLOCATOR\PROJECT1\RELEASE\SIMPLEALLOCATOR.OBJ|G:\PROGRAMING\CPP\ARENA_ALLOCATOR\PROJECT1\RELEASE\SOURCE.OBJ
G:\PROGRAMING\CPP\ARENA_ALLOCATOR\RELEASE\PROJECT1.PDB
#Command: "C:\Program Files (x86)\Microsoft Visual Studio\2019\Community\VC\Tools\MSVC\14.22.27905\bin\HostX86\x86\link.exe" /ERRORREPORT:PROMPT @C:\Users\Gamer\AppData\Local\Temp\tmp8b46100852eb467baafce07e148011e6.rsp
^G:\PROGRAMING\CPP\ARENA_ALLOCATOR\PROJECT1\RELEASE\SIMPLEALLOCATOR.OBJ|G:\PROGRAMING\CPP\ARENA_ALLOCATOR\PROJECT1\RELEASE\SOURCE.OBJ
G:\PROGRAMING\CPP\ARENA_ALLOCATOR\RELEASE\PROJECT1.PDB
#Command: "C:\Program Files (x86)\Microsoft Visual Studio\2019\Community\VC\Tools\MSVC\14.22.27905\bin\HostX86\x86\link.exe" /ERRORREPORT:PROMPT @C:\Users\Gamer\AppData\Local\Temp\tmp224c3036ee0f432e82cbadf8b5b9cbbd.rsp
^G:\PROGRAMING\CPP\ARENA_ALLOCATOR\PROJECT1\RELEASE\SIMPLEALLOCATOR.OBJ|G:\PROGRAMING\CPP\ARENA_ALLOCATOR\PROJECT1\RELEASE\SOURCE.OBJ
G:\PROGRAMING\CPP\ARENA_ALLOCATOR\RELEASE\PROJECT1.PDB
#Command: "C:\Program Files (x86)\Microsoft Visual Studio\2019\Community\VC\Tools\MSVC\14.22.27905\bin\HostX86\x86\link.exe" /ERRORREPORT:PROMPT @C:\Users\Gamer\AppData\Local\Temp\tmp31446154560e4be8a76798faec65e6ac.rsp
^G:\PROGRAMING\CPP\ARENA_ALLOCATOR\PROJECT1\RELEASE\SIMPLEALLOCATOR.OBJ|G:\PROGRAMING\CPP\ARENA_ALLOCATOR\PROJECT1\RELEASE\SOURCE.OBJ
G:\PROGRAMING\CPP\ARENA_ALLOCATOR\RELEASE\PROJECT1.PDB
#Command: "C:\Program Files (x86)\Microsoft Visual Studio\2019\Community\VC\Tools\MSVC\14.22.27905\bin\HostX86\x86\link.exe" /ERRORREPORT:PROMPT @C:\Users\Gamer\AppData\Local\Temp\tmp99d947725ca24a2da60d1bcfcdc56d8e.rsp
^G:\PROGRAMING\CPP\ARENA_ALLOCATOR\PROJECT1\RELEASE\SIMPLEALLOCATOR.OBJ|G:\PROGRAMING\CPP\ARENA_ALLOCATOR\PROJECT1\RELEASE\SOURCE.OBJ
G:\PROGRAMING\CPP\ARENA_ALLOCATOR\RELEASE\PROJECT1.PDB
#Command: "C:\Program Files (x86)\Microsoft Visual Studio\2019\Community\VC\Tools\MSVC\14.22.27905\bin\HostX86\x86\link.exe" /ERRORREPORT:PROMPT @C:\Users\Gamer\AppData\Local\Temp\tmpe57bc733a0154dd29ffce69a56ce5902.rsp
^G:\PROGRAMING\CPP\ARENA_ALLOCATOR\PROJECT1\RELEASE\SIMPLEALLOCATOR.OBJ|G:\PROGRAMING\CPP\ARENA_ALLOCATOR\PROJECT1\RELEASE\SOURCE.OBJ
G:\PROGRAMING\CPP\ARENA_ALLOCATOR\RELEASE\PROJECT1.PDB
#Command: "C:\Program Files (x86)\Microsoft Visual Studio\2019\Community\VC\Tools\MSVC\14.22.27905\bin\HostX86\x86\link.exe" /ERRORREPORT:PROMPT @C:\Users\Gamer\AppData\Local\Temp\tmpbf60cdb43d244677a25f877402b414d7.rsp
^G:\PROGRAMING\CPP\ARENA_ALLOCATOR\PROJECT1\RELEASE\SIMPLEALLOCATOR.OBJ|G:\PROGRAMING\CPP\ARENA_ALLOCATOR\PROJECT1\RELEASE\SOURCE.OBJ
G:\PROGRAMING\CPP\ARENA_ALLOCATOR\RELEASE\PROJECT1.PDB
#Command: "C:\Program Files (x86)\Microsoft Visual Studio\2019\Community\VC\Tools\MSVC\14.22.27905\bin\HostX86\x86\link.exe" /ERRORREPORT:PROMPT @C:\Users\Gamer\AppData\Local\Temp\tmp781ebefb29a54dd3b64a1684de05c449.rsp
^G:\PROGRAMING\CPP\ARENA_ALLOCATOR\PROJECT1\RELEASE\SIMPLEALLOCATOR.OBJ|G:\PROGRAMING\CPP\ARENA_ALLOCATOR\PROJECT1\RELEASE\SOURCE.OBJ
G:\PROGRAMING\CPP\ARENA_ALLOCATOR\RELEASE\PROJECT1.PDB
#Command: "C:\Program Files (x86)\Microsoft Visual Studio\2019\Community\VC\Tools\MSVC\14.22.27905\bin\HostX86\x86\link.exe" /ERRORREPORT:PROMPT @C:\Users\Gamer\AppData\Local\Temp\tmpf4f703c9a85f483686f7b48756fdcc6e.rsp
^G:\PROGRAMING\CPP\ARENA_ALLOCATOR\PROJECT1\RELEASE\SIMPLEALLOCATOR.OBJ|G:\PROGRAMING\CPP\ARENA_ALLOCATOR\PROJECT1\RELEASE\SOURCE.OBJ
G:\PROGRAMING\CPP\ARENA_ALLOCATOR\RELEASE\PROJECT1.PDB
#Command: "C:\Program Files (x86)\Microsoft Visual Studio\2019\Community\VC\Tools\MSVC\14.22.27905\bin\HostX86\x86\link.exe" /ERRORREPORT:PROMPT @C:\Users\Gamer\AppData\Local\Temp\tmp606793dff16a4882b2ad90c63ef19505.rsp
^G:\PROGRAMING\CPP\ARENA_ALLOCATOR\PROJECT1\RELEASE\SIMPLEALLOCATOR.OBJ|G:\PROGRAMING\CPP\ARENA_ALLOCATOR\PROJECT1\RELEASE\SOURCE.OBJ
G:\PROGRAMING\CPP\ARENA_ALLOCATOR\RELEASE\PROJECT1.PDB
#Command: "C:\Program Files (x86)\Microsoft Visual Studio\2019\Community\VC\Tools\MSVC\14.22.27905\bin\HostX86\x86\link.exe" /ERRORREPORT:PROMPT @C:\Users\Gamer\AppData\Local\Temp\tmpd725cc40413b43b99cde8d1ba641720b.rsp
^G:\PROGRAMING\CPP\ARENA_ALLOCATOR\PROJECT1\RELEASE\SIMPLEALLOCATOR.OBJ|G:\PROGRAMING\CPP\ARENA_ALLOCATOR\PROJECT1\RELEASE\SOURCE.OBJ
G:\PROGRAMING\CPP\ARENA_ALLOCATOR\RELEASE\PROJECT1.PDB
#Command: "C:\Program Files (x86)\Microsoft Visual Studio\2019\Community\VC\Tools\MSVC\14.22.27905\bin\HostX86\x86\link.exe" /ERRORREPORT:PROMPT @C:\Users\Gamer\AppData\Local\Temp\tmpe1dbdc08b53c4f888c4caf03892d079a.rsp
^G:\PROGRAMING\CPP\ARENA_ALLOCATOR\PROJECT1\RELEASE\SIMPLEALLOCATOR.OBJ|G:\PROGRAMING\CPP\ARENA_ALLOCATOR\PROJECT1\RELEASE\SOURCE.OBJ
G:\PROGRAMING\CPP\ARENA_ALLOCATOR\RELEASE\PROJECT1.PDB
#Command: "C:\Program Files (x86)\Microsoft Visual Studio\2019\Community\VC\Tools\MSVC\14.22.27905\bin\HostX86\x86\link.exe" /ERRORREPORT:PROMPT @C:\Users\Gamer\AppData\Local\Temp\tmp359f9d3dca4245929ab3f871f4254f6a.rsp
^G:\PROGRAMING\CPP\ARENA_ALLOCATOR\PROJECT1\RELEASE\SIMPLEALLOCATOR.OBJ|G:\PROGRAMING\CPP\ARENA_ALLOCATOR\PROJECT1\RELEASE\SOURCE.OBJ
G:\PROGRAMING\CPP\ARENA_ALLOCATOR\RELEASE\PROJECT1.PDB
#Command: "C:\Program Files (x86)\Microsoft Visual Studio\2019\Community\VC\Tools\MSVC\14.22.27905\bin\HostX86\x86\link.exe" /ERRORREPORT:PROMPT @C:\Users\Gamer\AppData\Local\Temp\tmp1563d048c30c42c8ae5545c084b2532a.rsp
^G:\PROGRAMING\CPP\ARENA_ALLOCATOR\PROJECT1\RELEASE\SIMPLEALLOCATOR.OBJ|G:\PROGRAMING\CPP\ARENA_ALLOCATOR\PROJECT1\RELEASE\SOURCE.OBJ
G:\PROGRAMING\CPP\ARENA_ALLOCATOR\RELEASE\PROJECT1.PDB
#Command: "C:\Program Files (x86)\Microsoft Visual Studio\2019\Community\VC\Tools\MSVC\14.22.27905\bin\HostX86\x86\link.exe" /ERRORREPORT:PROMPT @C:\Users\Gamer\AppData\Local\Temp\tmp0d38ebe5784347e5ad74e3e1b9e13287.rsp
^G:\PROGRAMING\CPP\ARENA_ALLOCATOR\PROJECT1\RELEASE\SIMPLEALLOCATOR.OBJ|G:\PROGRAMING\CPP\ARENA_ALLOCATOR\PROJECT1\RELEASE\SOURCE.OBJ
G:\PROGRAMING\CPP\ARENA_ALLOCATOR\RELEASE\PROJECT1.PDB
#Command: "C:\Program Files (x86)\Microsoft Visual Studio\2019\Community\VC\Tools\MSVC\14.22.27905\bin\HostX86\x86\link.exe" /ERRORREPORT:PROMPT @C:\Users\Gamer\AppData\Local\Temp\tmpd410d3ad7d1a45adb74bdf83227a5c4d.rsp
^G:\PROGRAMING\CPP\ARENA_ALLOCATOR\PROJECT1\RELEASE\SIMPLEALLOCATOR.OBJ|G:\PROGRAMING\CPP\ARENA_ALLOCATOR\PROJECT1\RELEASE\SOURCE.OBJ
G:\PROGRAMING\CPP\ARENA_ALLOCATOR\RELEASE\PROJECT1.PDB
#Command: "C:\Program Files (x86)\Microsoft Visual Studio\2019\Community\VC\Tools\MSVC\14.22.27905\bin\HostX86\x86\link.exe" /ERRORREPORT:PROMPT @C:\Users\Gamer\AppData\Local\Temp\tmp6fe1c17886d64c23b6afaeb5e5be8f52.rsp
^G:\PROGRAMING\CPP\ARENA_ALLOCATOR\PROJECT1\RELEASE\SIMPLEALLOCATOR.OBJ|G:\PROGRAMING\CPP\ARENA_ALLOCATOR\PROJECT1\RELEASE\SOURCE.OBJ
G:\PROGRAMING\CPP\ARENA_ALLOCATOR\RELEASE\PROJECT1.PDB
#Command: "C:\Program Files (x86)\Microsoft Visual Studio\2019\Community\VC\Tools\MSVC\14.22.27905\bin\HostX86\x86\link.exe" /ERRORREPORT:PROMPT @C:\Users\Gamer\AppData\Local\Temp\tmp4f058d15cdf042dc999cdfa6f0f735c6.rsp
^G:\PROGRAMING\CPP\ARENA_ALLOCATOR\PROJECT1\RELEASE\SIMPLEALLOCATOR.OBJ|G:\PROGRAMING\CPP\ARENA_ALLOCATOR\PROJECT1\RELEASE\SOURCE.OBJ
G:\PROGRAMING\CPP\ARENA_ALLOCATOR\RELEASE\PROJECT1.PDB
#Command: "C:\Program Files (x86)\Microsoft Visual Studio\2019\Community\VC\Tools\MSVC\14.22.27905\bin\HostX86\x86\link.exe" /ERRORREPORT:PROMPT @C:\Users\Gamer\AppData\Local\Temp\tmpfe85d2fe50cf4e42bedd952a77948433.rsp
^G:\PROGRAMING\CPP\ARENA_ALLOCATOR\PROJECT1\RELEASE\SIMPLEALLOCATOR.OBJ|G:\PROGRAMING\CPP\ARENA_ALLOCATOR\PROJECT1\RELEASE\SOURCE.OBJ
G:\PROGRAMING\CPP\ARENA_ALLOCATOR\RELEASE\PROJECT1.PDB
#Command: "C:\Program Files (x86)\Microsoft Visual Studio\2019\Community\VC\Tools\MSVC\14.22.27905\bin\HostX86\x86\link.exe" /ERRORREPORT:PROMPT @C:\Users\Gamer\AppData\Local\Temp\tmp2e7030f4c29a4b4fa62e169d8186b6d0.rsp
^G:\PROGRAMING\CPP\ARENA_ALLOCATOR\PROJECT1\RELEASE\SIMPLEALLOCATOR.OBJ|G:\PROGRAMING\CPP\ARENA_ALLOCATOR\PROJECT1\RELEASE\SOURCE.OBJ
G:\PROGRAMING\CPP\ARENA_ALLOCATOR\RELEASE\PROJECT1.PDB
#Command: "C:\Program Files (x86)\Microsoft Visual Studio\2019\Community\VC\Tools\MSVC\14.22.27905\bin\HostX86\x86\link.exe" /ERRORREPORT:PROMPT @C:\Users\Gamer\AppData\Local\Temp\tmp8b64b77b4c8343729423571324ed2fa0.rsp
^G:\PROGRAMING\CPP\ARENA_ALLOCATOR\PROJECT1\RELEASE\SIMPLEALLOCATOR.OBJ|G:\PROGRAMING\CPP\ARENA_ALLOCATOR\PROJECT1\RELEASE\SOURCE.OBJ
G:\PROGRAMING\CPP\ARENA_ALLOCATOR\RELEASE\PROJECT1.PDB
#Command: "C:\Program Files (x86)\Microsoft Visual Studio\2019\Community\VC\Tools\MSVC\14.22.27905\bin\HostX86\x86\link.exe" /ERRORREPORT:PROMPT @C:\Users\Gamer\AppData\Local\Temp\tmp1323abd2ed5a4ba9956e8f3618b72cd0.rsp
^G:\PROGRAMING\CPP\ARENA_ALLOCATOR\PROJECT1\RELEASE\SIMPLEALLOCATOR.OBJ|G:\PROGRAMING\CPP\ARENA_ALLOCATOR\PROJECT1\RELEASE\SOURCE.OBJ
G:\PROGRAMING\CPP\ARENA_ALLOCATOR\RELEASE\PROJECT1.PDB
#Command: "C:\Program Files (x86)\Microsoft Visual Studio\2019\Community\VC\Tools\MSVC\14.22.27905\bin\HostX86\x86\link.exe" /ERRORREPORT:PROMPT @C:\Users\Gamer\AppData\Local\Temp\tmp3ed39ed2e91c45d39d926c8c0c5e4581.rsp
^G:\PROGRAMING\CPP\ARENA_ALLOCATOR\PROJECT1\RELEASE\SIMPLEALLOCATOR.OBJ|G:\PROGRAMING\CPP\ARENA_ALLOCATOR\PROJECT1\RELEASE\SOURCE.OBJ
G:\PROGRAMING\CPP\ARENA_ALLOCATOR\RELEASE\PROJECT1.PDB
#Command: "C:\Program Files (x86)\Microsoft Visual Studio\2019\Community\VC\Tools\MSVC\14.22.27905\bin\HostX86\x86\link.exe" /ERRORREPORT:PROMPT @C:\Users\Gamer\AppData\Local\Temp\tmp13058babdf424f85a20932bfe566b570.rsp
^G:\PROGRAMING\CPP\ARENA_ALLOCATOR\PROJECT1\RELEASE\SIMPLEALLOCATOR.OBJ|G:\PROGRAMING\CPP\ARENA_ALLOCATOR\PROJECT1\RELEASE\SOURCE.OBJ
G:\PROGRAMING\CPP\ARENA_ALLOCATOR\RELEASE\PROJECT1.PDB
#Command: "C:\Program Files (x86)\Microsoft Visual Studio\2019\Community\VC\Tools\MSVC\14.22.27905\bin\HostX86\x86\link.exe" /ERRORREPORT:PROMPT @C:\Users\Gamer\AppData\Local\Temp\tmp588086d43ec54965abe0e3d11d4375a1.rsp
^G:\PROGRAMING\CPP\ARENA_ALLOCATOR\PROJECT1\RELEASE\SIMPLEALLOCATOR.OBJ|G:\PROGRAMING\CPP\ARENA_ALLOCATOR\PROJECT1\RELEASE\SOURCE.OBJ
G:\PROGRAMING\CPP\ARENA_ALLOCATOR\RELEASE\PROJECT1.PDB
#Command: "C:\Program Files (x86)\Microsoft Visual Studio\2019\Community\VC\Tools\MSVC\14.22.27905\bin\HostX86\x86\link.exe" /ERRORREPORT:PROMPT @C:\Users\Gamer\AppData\Local\Temp\tmpa6986fe2d9a54672866ff5996bca603f.rsp
^G:\PROGRAMING\CPP\ARENA_ALLOCATOR\PROJECT1\RELEASE\SIMPLEALLOCATOR.OBJ|G:\PROGRAMING\CPP\ARENA_ALLOCATOR\PROJECT1\RELEASE\SOURCE.OBJ
G:\PROGRAMING\CPP\ARENA_ALLOCATOR\RELEASE\PROJECT1.PDB
#Command: "C:\Program Files (x86)\Microsoft Visual Studio\2019\Community\VC\Tools\MSVC\14.22.27905\bin\HostX86\x86\link.exe" /ERRORREPORT:PROMPT @C:\Users\Gamer\AppData\Local\Temp\tmpaafa708f4ddf4727b8c3712aa9e95ac3.rsp
^G:\PROGRAMING\CPP\ARENA_ALLOCATOR\PROJECT1\RELEASE\SIMPLEALLOCATOR.OBJ|G:\PROGRAMING\CPP\ARENA_ALLOCATOR\PROJECT1\RELEASE\SOURCE.OBJ
G:\PROGRAMING\CPP\ARENA_ALLOCATOR\RELEASE\PROJECT1.PDB
#Command: "C:\Program Files (x86)\Microsoft Visual Studio\2019\Community\VC\Tools\MSVC\14.22.27905\bin\HostX86\x86\link.exe" /ERRORREPORT:PROMPT @C:\Users\Gamer\AppData\Local\Temp\tmp0501e71a12f54d3baf42b5c1500e85be.rsp
^G:\PROGRAMING\CPP\ARENA_ALLOCATOR\PROJECT1\RELEASE\SIMPLEALLOCATOR.OBJ|G:\PROGRAMING\CPP\ARENA_ALLOCATOR\PROJECT1\RELEASE\SOURCE.OBJ
G:\PROGRAMING\CPP\ARENA_ALLOCATOR\RELEASE\PROJECT1.PDB
#Command: "C:\Program Files (x86)\Microsoft Visual Studio\2019\Community\VC\Tools\MSVC\14.22.27905\bin\HostX86\x86\link.exe" /ERRORREPORT:PROMPT @C:\Users\Gamer\AppData\Local\Temp\tmp546dced9072e46c2ace254eb2aafe3ad.rsp
^G:\PROGRAMING\CPP\ARENA_ALLOCATOR\PROJECT1\RELEASE\SIMPLEALLOCATOR.OBJ|G:\PROGRAMING\CPP\ARENA_ALLOCATOR\PROJECT1\RELEASE\SOURCE.OBJ
G:\PROGRAMING\CPP\ARENA_ALLOCATOR\RELEASE\PROJECT1.PDB
#Command: "C:\Program Files (x86)\Microsoft Visual Studio\2019\Community\VC\Tools\MSVC\14.22.27905\bin\HostX86\x86\link.exe" /ERRORREPORT:PROMPT @C:\Users\Gamer\AppData\Local\Temp\tmp526bc5d047764cccadf24b719382b14f.rsp
^G:\PROGRAMING\CPP\ARENA_ALLOCATOR\PROJECT1\RELEASE\SIMPLEALLOCATOR.OBJ|G:\PROGRAMING\CPP\ARENA_ALLOCATOR\PROJECT1\RELEASE\SOURCE.OBJ
G:\PROGRAMING\CPP\ARENA_ALLOCATOR\RELEASE\PROJECT1.PDB
#Command: "C:\Program Files (x86)\Microsoft Visual Studio\2019\Community\VC\Tools\MSVC\14.22.27905\bin\HostX86\x86\link.exe" /ERRORREPORT:PROMPT @C:\Users\Gamer\AppData\Local\Temp\tmp2a6e618dc60446d1a343d00fbabc257d.rsp
^G:\PROGRAMING\CPP\ARENA_ALLOCATOR\PROJECT1\RELEASE\SIMPLEALLOCATOR.OBJ|G:\PROGRAMING\CPP\ARENA_ALLOCATOR\PROJECT1\RELEASE\SOURCE.OBJ
G:\PROGRAMING\CPP\ARENA_ALLOCATOR\RELEASE\PROJECT1.PDB
#Command: "C:\Program Files (x86)\Microsoft Visual Studio\2019\Community\VC\Tools\MSVC\14.22.27905\bin\HostX86\x86\link.exe" /ERRORREPORT:PROMPT @C:\Users\Gamer\AppData\Local\Temp\tmpc9b9cc3ac15a4c38bbcec1d395f158f3.rsp
^G:\PROGRAMING\CPP\ARENA_ALLOCATOR\PROJECT1\RELEASE\SIMPLEALLOCATOR.OBJ|G:\PROGRAMING\CPP\ARENA_ALLOCATOR\PROJECT1\RELEASE\SOURCE.OBJ
G:\PROGRAMING\CPP\ARENA_ALLOCATOR\RELEASE\PROJECT1.PDB
#Command: "C:\Program Files (x86)\Microsoft Visual Studio\2019\Community\VC\Tools\MSVC\14.22.27905\bin\HostX86\x86\link.exe" /ERRORREPORT:PROMPT @C:\Users\Gamer\AppData\Local\Temp\tmpd94eb599d2f84eb88a379b79ceb80f6a.rsp
^G:\PROGRAMING\CPP\ARENA_ALLOCATOR\PROJECT1\RELEASE\SIMPLEALLOCATOR.OBJ|G:\PROGRAMING\CPP\ARENA_ALLOCATOR\PROJECT1\RELEASE\SOURCE.OBJ
G:\PROGRAMING\CPP\ARENA_ALLOCATOR\RELEASE\PROJECT1.PDB
#Command: "C:\Program Files (x86)\Microsoft Visual Studio\2019\Community\VC\Tools\MSVC\14.22.27905\bin\HostX86\x86\link.exe" /ERRORREPORT:PROMPT @C:\Users\Gamer\AppData\Local\Temp\tmpe8c83c5bc72f48dfbaf89ed48982ca31.rsp
^G:\PROGRAMING\CPP\ARENA_ALLOCATOR\PROJECT1\RELEASE\SIMPLEALLOCATOR.OBJ|G:\PROGRAMING\CPP\ARENA_ALLOCATOR\PROJECT1\RELEASE\SOURCE.OBJ
G:\PROGRAMING\CPP\ARENA_ALLOCATOR\RELEASE\PROJECT1.PDB
#Command: "C:\Program Files (x86)\Microsoft Visual Studio\2019\Community\VC\Tools\MSVC\14.22.27905\bin\HostX86\x86\link.exe" /ERRORREPORT:PROMPT @C:\Users\Gamer\AppData\Local\Temp\tmp0ee6ccc6c130442fbe012a8563d80215.rsp
^G:\PROGRAMING\CPP\ARENA_ALLOCATOR\PROJECT1\RELEASE\SIMPLEALLOCATOR.OBJ|G:\PROGRAMING\CPP\ARENA_ALLOCATOR\PROJECT1\RELEASE\SOURCE.OBJ
G:\PROGRAMING\CPP\ARENA_ALLOCATOR\RELEASE\PROJECT1.PDB
#Command: "C:\Program Files (x86)\Microsoft Visual Studio\2019\Community\VC\Tools\MSVC\14.22.27905\bin\HostX86\x86\link.exe" /ERRORREPORT:PROMPT @C:\Users\Gamer\AppData\Local\Temp\tmp4a97c61857444275969f2dde2e4fc1de.rsp
^G:\PROGRAMING\CPP\ARENA_ALLOCATOR\PROJECT1\RELEASE\SIMPLEALLOCATOR.OBJ|G:\PROGRAMING\CPP\ARENA_ALLOCATOR\PROJECT1\RELEASE\SOURCE.OBJ
G:\PROGRAMING\CPP\ARENA_ALLOCATOR\RELEASE\PROJECT1.PDB
#Command: "C:\Program Files (x86)\Microsoft Visual Studio\2019\Community\VC\Tools\MSVC\14.22.27905\bin\HostX86\x86\link.exe" /ERRORREPORT:PROMPT @C:\Users\Gamer\AppData\Local\Temp\tmp63624a358594442aa28892d3e32bd202.rsp
^G:\PROGRAMING\CPP\ARENA_ALLOCATOR\PROJECT1\RELEASE\SIMPLEALLOCATOR.OBJ|G:\PROGRAMING\CPP\ARENA_ALLOCATOR\PROJECT1\RELEASE\SOURCE.OBJ
G:\PROGRAMING\CPP\ARENA_ALLOCATOR\RELEASE\PROJECT1.PDB
