^G:\programing\cpp\arena_allocator\Project1\Project1.vcxproj
G:\programing\cpp\arena_allocator\Release\Project1.ipdb
G:\programing\cpp\arena_allocator\Release\Project1.iobj
^G:\programing\cpp\arena_allocator\Project1\Project1.vcxproj
G:\programing\cpp\arena_allocator\Release\Project1.ipdb
G:\programing\cpp\arena_allocator\Release\Project1.iobj
^G:\programing\cpp\arena_allocator\Project1\Project1.vcxproj
G:\programing\cpp\arena_allocator\Release\Project1.ipdb
G:\programing\cpp\arena_allocator\Release\Project1.iobj
^G:\programing\cpp\arena_allocator\Project1\Project1.vcxproj
G:\programing\cpp\arena_allocator\Release\Project1.ipdb
G:\programing\cpp\arena_allocator\Release\Project1.iobj
^G:\programing\cpp\arena_allocator\Project1\Project1.vcxproj
G:\programing\cpp\arena_allocator\Release\Project1.ipdb
G:\programing\cpp\arena_allocator\Release\Project1.iobj
^G:\programing\cpp\arena_allocator\Project1\Project1.vcxproj
G:\programing\cpp\arena_allocator\Release\Project1.ipdb
G:\programing\cpp\arena_allocator\Release\Project1.iobj
^G:\programing\cpp\arena_allocator\Project1\Project1.vcxproj
G:\programing\cpp\arena_allocator\Release\Project1.ipdb
G:\programing\cpp\arena_allocator\Release\Project1.iobj
^G:\programing\cpp\arena_allocator\Project1\Project1.vcxproj
G:\programing\cpp\arena_allocator\Release\Project1.ipdb
G:\programing\cpp\arena_allocator\Release\Project1.iobj
^G:\programing\cpp\arena_allocator\Project1\Project1.vcxproj
G:\programing\cpp\arena_allocator\Release\Project1.ipdb
G:\programing\cpp\arena_allocator\Release\Project1.iobj
^G:\programing\cpp\arena_allocator\Project1\Project1.vcxproj
G:\programing\cpp\arena_allocator\Release\Project1.ipdb
G:\programing\cpp\arena_allocator\Release\Project1.iobj
^G:\programing\cpp\arena_allocator\Project1\Project1.vcxproj
G:\programing\cpp\arena_allocator\Release\Project1.ipdb
G:\programing\cpp\arena_allocator\Release\Project1.iobj
^G:\programing\cpp\arena_allocator\Project1\Project1.vcxproj
G:\programing\cpp\arena_allocator\Release\Project1.ipdb
G:\programing\cpp\arena_allocator\Release\Project1.iobj
^G:\programing\cpp\arena_allocator\Project1\Project1.vcxproj
G:\programing\cpp\arena_allocator\Release\Project1.ipdb
G:\programing\cpp\arena_allocator\Release\Project1.iobj
^G:\programing\cpp\arena_allocator\Project1\Project1.vcxproj
G:\programing\cpp\arena_allocator\Release\Project1.ipdb
G:\programing\cpp\arena_allocator\Release\Project1.iobj
^G:\programing\cpp\arena_allocator\Project1\Project1.vcxproj
G:\programing\cpp\arena_allocator\Release\Project1.ipdb
G:\programing\cpp\arena_allocator\Release\Project1.iobj
^G:\programing\cpp\arena_allocator\Project1\Project1.vcxproj
G:\programing\cpp\arena_allocator\Release\Project1.ipdb
G:\programing\cpp\arena_allocator\Release\Project1.iobj
^G:\programing\cpp\arena_allocator\Project1\Project1.vcxproj
G:\programing\cpp\arena_allocator\Release\Project1.ipdb
G:\programing\cpp\arena_allocator\Release\Project1.iobj
^G:\programing\cpp\arena_allocator\Project1\Project1.vcxproj
G:\programing\cpp\arena_allocator\Release\Project1.ipdb
G:\programing\cpp\arena_allocator\Release\Project1.iobj
^G:\programing\cpp\arena_allocator\Project1\Project1.vcxproj
G:\programing\cpp\arena_allocator\Release\Project1.ipdb
G:\programing\cpp\arena_allocator\Release\Project1.iobj
^G:\programing\cpp\arena_allocator\Project1\Project1.vcxproj
G:\programing\cpp\arena_allocator\Release\Project1.ipdb
G:\programing\cpp\arena_allocator\Release\Project1.iobj
^G:\programing\cpp\arena_allocator\Project1\Project1.vcxproj
G:\programing\cpp\arena_allocator\Release\Project1.ipdb
G:\programing\cpp\arena_allocator\Release\Project1.iobj
^G:\programing\cpp\arena_allocator\Project1\Project1.vcxproj
G:\programing\cpp\arena_allocator\Release\Project1.ipdb
G:\programing\cpp\arena_allocator\Release\Project1.iobj
^G:\programing\cpp\arena_allocator\Project1\Project1.vcxproj
G:\programing\cpp\arena_allocator\Release\Project1.ipdb
G:\programing\cpp\arena_allocator\Release\Project1.iobj
^G:\programing\cpp\arena_allocator\Project1\Project1.vcxproj
G:\programing\cpp\arena_allocator\Release\Project1.ipdb
G:\programing\cpp\arena_allocator\Release\Project1.iobj
^G:\programing\cpp\arena_allocator\Project1\Project1.vcxproj
G:\programing\cpp\arena_allocator\Release\Project1.ipdb
G:\programing\cpp\arena_allocator\Release\Project1.iobj
^G:\programing\cpp\arena_allocator\Project1\Project1.vcxproj
G:\programing\cpp\arena_allocator\Release\Project1.ipdb
G:\programing\cpp\arena_allocator\Release\Project1.iobj
^G:\programing\cpp\arena_allocator\Project1\Project1.vcxproj
G:\programing\cpp\arena_allocator\Release\Project1.ipdb
G:\programing\cpp\arena_allocator\Release\Project1.iobj
^G:\programing\cpp\arena_allocator\Project1\Project1.vcxproj
G:\programing\cpp\arena_allocator\Release\Project1.ipdb
G:\programing\cpp\arena_allocator\Release\Project1.iobj
^G:\programing\cpp\arena_allocator\Project1\Project1.vcxproj
G:\programing\cpp\arena_allocator\Release\Project1.ipdb
G:\programing\cpp\arena_allocator\Release\Project1.iobj
^G:\programing\cpp\arena_allocator\Project1\Project1.vcxproj
G:\programing\cpp\arena_allocator\Release\Project1.ipdb
G:\programing\cpp\arena_allocator\Release\Project1.iobj
^G:\programing\cpp\arena_allocator\Project1\Project1.vcxproj
G:\programing\cpp\arena_allocator\Release\Project1.ipdb
G:\programing\cpp\arena_allocator\Release\Project1.iobj
^G:\programing\cpp\arena_allocator\Project1\Project1.vcxproj
G:\programing\cpp\arena_allocator\Release\Project1.ipdb
G:\programing\cpp\arena_allocator\Release\Project1.iobj
^G:\programing\cpp\arena_allocator\Project1\Project1.vcxproj
G:\programing\cpp\arena_allocator\Release\Project1.ipdb
G:\programing\cpp\arena_allocator\Release\Project1.iobj
^G:\programing\cpp\arena_allocator\Project1\Project1.vcxproj
G:\programing\cpp\arena_allocator\Release\Project1.ipdb
G:\programing\cpp\arena_allocator\Release\Project1.iobj
^G:\programing\cpp\arena_allocator\Project1\Project1.vcxproj
G:\programing\cpp\arena_allocator\Release\Project1.ipdb
G:\programing\cpp\arena_allocator\Release\Project1.iobj
^G:\programing\cpp\arena_allocator\Project1\Project1.vcxproj
G:\programing\cpp\arena_allocator\Release\Project1.ipdb
G:\programing\cpp\arena_allocator\Release\Project1.iobj
^G:\programing\cpp\arena_allocator\Project1\Project1.vcxproj
G:\programing\cpp\arena_allocator\Release\Project1.ipdb
G:\programing\cpp\arena_allocator\Release\Project1.iobj
^G:\programing\cpp\arena_allocator\Project1\Project1.vcxproj
G:\programing\cpp\arena_allocator\Release\Project1.ipdb
G:\programing\cpp\arena_allocator\Release\Project1.iobj
^G:\programing\cpp\arena_allocator\Project1\Project1.vcxproj
G:\programing\cpp\arena_allocator\Release\Project1.ipdb
G:\programing\cpp\arena_allocator\Release\Project1.iobj
^G:\programing\cpp\arena_allocator\Project1\Project1.vcxproj
G:\programing\cpp\arena_allocator\Release\Project1.ipdb
G:\programing\cpp\arena_allocator\Release\Project1.iobj
^G:\programing\cpp\arena_allocator\Project1\Project1.vcxproj
G:\programing\cpp\arena_allocator\Release\Project1.ipdb
G:\programing\cpp\arena_allocator\Release\Project1.iobj
^G:\programing\cpp\arena_allocator\Project1\Project1.vcxproj
G:\programing\cpp\arena_allocator\Release\Project1.ipdb
G:\programing\cpp\arena_allocator\Release\Project1.iobj
^G:\programing\cpp\arena_allocator\Project1\Project1.vcxproj
G:\programing\cpp\arena_allocator\Release\Project1.ipdb
G:\programing\cpp\arena_allocator\Release\Project1.iobj
^G:\programing\cpp\arena_allocator\Project1\Project1.vcxproj
G:\programing\cpp\arena_allocator\Release\Project1.ipdb
G:\programing\cpp\arena_allocator\Release\Project1.iobj
^G:\programing\cpp\arena_allocator\Project1\Project1.vcxproj
G:\programing\cpp\arena_allocator\Release\Project1.ipdb
G:\programing\cpp\arena_allocator\Release\Project1.iobj
^G:\programing\cpp\arena_allocator\Project1\Project1.vcxproj
G:\programing\cpp\arena_allocator\Release\Project1.ipdb
G:\programing\cpp\arena_allocator\Release\Project1.iobj
^G:\programing\cpp\arena_allocator\Project1\Project1.vcxproj
G:\programing\cpp\arena_allocator\Release\Project1.ipdb
G:\programing\cpp\arena_allocator\Release\Project1.iobj
^G:\programing\cpp\arena_allocator\Project1\Project1.vcxproj
G:\programing\cpp\arena_allocator\Release\Project1.ipdb
G:\programing\cpp\arena_allocator\Release\Project1.iobj
^G:\programing\cpp\arena_allocator\Project1\Project1.vcxproj
G:\programing\cpp\arena_allocator\Release\Project1.ipdb
G:\programing\cpp\arena_allocator\Release\Project1.iobj
^G:\programing\cpp\arena_allocator\Project1\Project1.vcxproj
G:\programing\cpp\arena_allocator\Release\Project1.ipdb
G:\programing\cpp\arena_allocator\Release\Project1.iobj
^G:\programing\cpp\arena_allocator\Project1\Project1.vcxproj
G:\programing\cpp\arena_allocator\Release\Project1.ipdb
G:\programing\cpp\arena_allocator\Release\Project1.iobj
^G:\programing\cpp\arena_allocator\Project1\Project1.vcxproj
G:\programing\cpp\arena_allocator\Release\Project1.ipdb
G:\programing\cpp\arena_allocator\Release\Project1.iobj
^G:\programing\cpp\arena_allocator\Project1\Project1.vcxproj
G:\programing\cpp\arena_allocator\Release\Project1.ipdb
G:\programing\cpp\arena_allocator\Release\Project1.iobj
^G:\programing\cpp\arena_allocator\Project1\Project1.vcxproj
G:\programing\cpp\arena_allocator\Release\Project1.ipdb
G:\programing\cpp\arena_allocator\Release\Project1.iobj
^G:\programing\cpp\arena_allocator\Project1\Project1.vcxproj
G:\programing\cpp\arena_allocator\Release\Project1.ipdb
G:\programing\cpp\arena_allocator\Release\Project1.iobj
^G:\programing\cpp\arena_allocator\Project1\Project1.vcxproj
G:\programing\cpp\arena_allocator\Release\Project1.ipdb
G:\programing\cpp\arena_allocator\Release\Project1.iobj
^G:\programing\cpp\arena_allocator\Project1\Project1.vcxproj
G:\programing\cpp\arena_allocator\Release\Project1.ipdb
G:\programing\cpp\arena_allocator\Release\Project1.iobj
^G:\programing\cpp\arena_allocator\Project1\Project1.vcxproj
G:\programing\cpp\arena_allocator\Release\Project1.ipdb
G:\programing\cpp\arena_allocator\Release\Project1.iobj
^G:\programing\cpp\arena_allocator\Project1\Project1.vcxproj
G:\programing\cpp\arena_allocator\Release\Project1.ipdb
G:\programing\cpp\arena_allocator\Release\Project1.iobj
^G:\programing\cpp\arena_allocator\Project1\Project1.vcxproj
G:\programing\cpp\arena_allocator\Release\Project1.ipdb
G:\programing\cpp\arena_allocator\Release\Project1.iobj
^G:\programing\cpp\arena_allocator\Project1\Project1.vcxproj
G:\programing\cpp\arena_allocator\Release\Project1.ipdb
G:\programing\cpp\arena_allocator\Release\Project1.iobj
^G:\programing\cpp\arena_allocator\Project1\Project1.vcxproj
G:\programing\cpp\arena_allocator\Release\Project1.ipdb
G:\programing\cpp\arena_allocator\Release\Project1.iobj
^G:\programing\cpp\arena_allocator\Project1\Project1.vcxproj
G:\programing\cpp\arena_allocator\Release\Project1.ipdb
G:\programing\cpp\arena_allocator\Release\Project1.iobj
^G:\programing\cpp\arena_allocator\Project1\Project1.vcxproj
G:\programing\cpp\arena_allocator\Release\Project1.ipdb
G:\programing\cpp\arena_allocator\Release\Project1.iobj
^G:\programing\cpp\arena_allocator\Project1\Project1.vcxproj
G:\programing\cpp\arena_allocator\Release\Project1.ipdb
G:\programing\cpp\arena_allocator\Release\Project1.iobj
^G:\programing\cpp\arena_allocator\Project1\Project1.vcxproj
G:\programing\cpp\arena_allocator\Release\Project1.ipdb
G:\programing\cpp\arena_allocator\Release\Project1.iobj
^G:\programing\cpp\arena_allocator\Project1\Project1.vcxproj
G:\programing\cpp\arena_allocator\Release\Project1.ipdb
G:\programing\cpp\arena_allocator\Release\Project1.iobj
^G:\programing\cpp\arena_allocator\Project1\Project1.vcxproj
G:\programing\cpp\arena_allocator\Release\Project1.ipdb
G:\programing\cpp\arena_allocator\Release\Project1.iobj
^G:\programing\cpp\arena_allocator\Project1\Project1.vcxproj
G:\programing\cpp\arena_allocator\Release\Project1.ipdb
G:\programing\cpp\arena_allocator\Release\Project1.iobj
^G:\programing\cpp\arena_allocator\Project1\Project1.vcxproj
G:\programing\cpp\arena_allocator\Release\Project1.ipdb
G:\programing\cpp\arena_allocator\Release\Project1.iobj
^G:\programing\cpp\arena_allocator\Project1\Project1.vcxproj
G:\programing\cpp\arena_allocator\Release\Project1.ipdb
G:\programing\cpp\arena_allocator\Release\Project1.iobj
^G:\programing\cpp\arena_allocator\Project1\Project1.vcxproj
G:\programing\cpp\arena_allocator\Release\Project1.ipdb
G:\programing\cpp\arena_allocator\Release\Project1.iobj
^G:\programing\cpp\arena_allocator\Project1\Project1.vcxproj
G:\programing\cpp\arena_allocator\Release\Project1.ipdb
G:\programing\cpp\arena_allocator\Release\Project1.iobj
^G:\programing\cpp\arena_allocator\Project1\Project1.vcxproj
G:\programing\cpp\arena_allocator\Release\Project1.ipdb
G:\programing\cpp\arena_allocator\Release\Project1.iobj
^G:\programing\cpp\arena_allocator\Project1\Project1.vcxproj
G:\programing\cpp\arena_allocator\Release\Project1.ipdb
G:\programing\cpp\arena_allocator\Release\Project1.iobj
^G:\programing\cpp\arena_allocator\Project1\Project1.vcxproj
G:\programing\cpp\arena_allocator\Release\Project1.ipdb
G:\programing\cpp\arena_allocator\Release\Project1.iobj
^G:\programing\cpp\arena_allocator\Project1\Project1.vcxproj
G:\programing\cpp\arena_allocator\Release\Project1.ipdb
G:\programing\cpp\arena_allocator\Release\Project1.iobj
^G:\programing\cpp\arena_allocator\Project1\Project1.vcxproj
G:\programing\cpp\arena_allocator\Release\Project1.ipdb
G:\programing\cpp\arena_allocator\Release\Project1.iobj
^G:\programing\cpp\arena_allocator\Project1\Project1.vcxproj
G:\programing\cpp\arena_allocator\Release\Project1.ipdb
G:\programing\cpp\arena_allocator\Release\Project1.iobj
^G:\programing\cpp\arena_allocator\Project1\Project1.vcxproj
G:\programing\cpp\arena_allocator\Release\Project1.ipdb
G:\programing\cpp\arena_allocator\Release\Project1.iobj
^G:\programing\cpp\arena_allocator\Project1\Project1.vcxproj
G:\programing\cpp\arena_allocator\Release\Project1.ipdb
G:\programing\cpp\arena_allocator\Release\Project1.iobj
^G:\programing\cpp\arena_allocator\Project1\Project1.vcxproj
G:\programing\cpp\arena_allocator\Release\Project1.ipdb
G:\programing\cpp\arena_allocator\Release\Project1.iobj
^G:\programing\cpp\arena_allocator\Project1\Project1.vcxproj
G:\programing\cpp\arena_allocator\Release\Project1.ipdb
G:\programing\cpp\arena_allocator\Release\Project1.iobj
^G:\programing\cpp\arena_allocator\Project1\Project1.vcxproj
G:\programing\cpp\arena_allocator\Release\Project1.ipdb
G:\programing\cpp\arena_allocator\Release\Project1.iobj
^G:\programing\cpp\arena_allocator\Project1\Project1.vcxproj
G:\programing\cpp\arena_allocator\Release\Project1.ipdb
G:\programing\cpp\arena_allocator\Release\Project1.iobj
^G:\programing\cpp\arena_allocator\Project1\Project1.vcxproj
G:\programing\cpp\arena_allocator\Release\Project1.ipdb
G:\programing\cpp\arena_allocator\Release\Project1.iobj
^G:\programing\cpp\arena_allocator\Project1\Project1.vcxproj
G:\programing\cpp\arena_allocator\Release\Project1.ipdb
G:\programing\cpp\arena_allocator\Release\Project1.iobj
^G:\programing\cpp\arena_allocator\Project1\Project1.vcxproj
G:\programing\cpp\arena_allocator\Release\Project1.ipdb
G:\programing\cpp\arena_allocator\Release\Project1.iobj
^G:\programing\cpp\arena_allocator\Project1\Project1.vcxproj
G:\programing\cpp\arena_allocator\Release\Project1.ipdb
G:\programing\cpp\arena_allocator\Release\Project1.iobj
^G:\programing\cpp\arena_allocator\Project1\Project1.vcxproj
G:\programing\cpp\arena_allocator\Release\Project1.ipdb
G:\programing\cpp\arena_allocator\Release\Project1.iobj
^G:\programing\cpp\arena_allocator\Project1\Project1.vcxproj
G:\programing\cpp\arena_allocator\Release\Project1.ipdb
G:\programing\cpp\arena_allocator\Release\Project1.iobj
^G:\programing\cpp\arena_allocator\Project1\Project1.vcxproj
G:\programing\cpp\arena_allocator\Release\Project1.ipdb
G:\programing\cpp\arena_allocator\Release\Project1.iobj
^G:\programing\cpp\arena_allocator\Project1\Project1.vcxproj
G:\programing\cpp\arena_allocator\Release\Project1.ipdb
G:\programing\cpp\arena_allocator\Release\Project1.iobj
^G:\programing\cpp\arena_allocator\Project1\Project1.vcxproj
G:\programing\cpp\arena_allocator\Release\Project1.ipdb
G:\programing\cpp\arena_allocator\Release\Project1.iobj
^G:\programing\cpp\arena_allocator\Project1\Project1.vcxproj
G:\programing\cpp\arena_allocator\Release\Project1.ipdb
G:\programing\cpp\arena_allocator\Release\Project1.iobj
^G:\programing\cpp\arena_allocator\Project1\Project1.vcxproj
G:\programing\cpp\arena_allocator\Release\Project1.ipdb
G:\programing\cpp\arena_allocator\Release\Project1.iobj
^G:\programing\cpp\arena_allocator\Project1\Project1.vcxproj
G:\programing\cpp\arena_allocator\Release\Project1.ipdb
G:\programing\cpp\arena_allocator\Release\Project1.iobj
^G:\programing\cpp\arena_allocator\Project1\Project1.vcxproj
G:\programing\cpp\arena_allocator\Release\Project1.ipdb
G:\programing\cpp\arena_allocator\Release\Project1.iobj
^G:\programing\cpp\arena_allocator\Project1\Project1.vcxproj
G:\programing\cpp\arena_allocator\Release\Project1.ipdb
G:\programing\cpp\arena_allocator\Release\Project1.iobj
^G:\programing\cpp\arena_allocator\Project1\Project1.vcxproj
G:\programing\cpp\arena_allocator\Release\Project1.ipdb
G:\programing\cpp\arena_allocator\Release\Project1.iobj
^G:\programing\cpp\arena_allocator\Project1\Project1.vcxproj
G:\programing\cpp\arena_allocator\Release\Project1.ipdb
G:\programing\cpp\arena_allocator\Release\Project1.iobj
^G:\programing\cpp\arena_allocator\Project1\Project1.vcxproj
G:\programing\cpp\arena_allocator\Release\Project1.ipdb
G:\programing\cpp\arena_allocator\Release\Project1.iobj
^G:\programing\cpp\arena_allocator\Project1\Project1.vcxproj
G:\programing\cpp\arena_allocator\Release\Project1.ipdb
G:\programing\cpp\arena_allocator\Release\Project1.iobj
^G:\programing\cpp\arena_allocator\Project1\Project1.vcxproj
G:\programing\cpp\arena_allocator\Release\Project1.ipdb
G:\programing\cpp\arena_allocator\Release\Project1.iobj
